ECON 4198W Merge and Analysis
…
  if (nrow(dupes) == 0) {
    message("✅ Data is uniquely identified by unit, time, and sector.")
  } else {
    message("❌ Found duplicate rows:")
    print(dupes)
  }
}

duplicates <-check_panel(ProsemData_Raw)

❌ Found duplicate rows:

# A tibble: 6,438 × 10
# Groups:   GEO_ID, YEAR, NAICS [3,219]
   GEO_ID NAME   YEAR ESTAB NAICS COUNTY initial_approval num_petitions win_rate
   <chr>  <chr> <int> <int> <int> <chr>             <int>         <int>    <dbl>
 1 05000… Cham…  2012     3  5173 01017                11            50    0.22 
 2 05000… Cham…  2012     2  5173 01017                11            50    0.22 
 3 05000… Jeff…  2012    19  4523 01073                26            40    0.65 
 4 05000… Jeff…  2012   123  4523 01073                26            40    0.65 
 5 05000… Jeff…  2012    85  5173 01073                26            40    0.65 
 6 05000… Jeff…  2012    43  5173 01073                26            40    0.65 
 7 05000… Lee …  2012     7  4523 01081                17            81    0.210
 8 05000… Lee …  2012    22  4523 01081                17            81    0.210
 9 05000… Lee …  2012     7  5173 01081                17            81    0.210
10 05000… Lee …  2012     6  5173 01081                17            81    0.210
# ℹ 6,428 more rows
# ℹ 1 more variable: h1b_activity <dbl>
…
